[
    {
        "id": 1,
        "image": "https://i.pinimg.com/236x/7d/ca/09/7dca09ca95b265bb5288a056ecf686c6.jpg",
        "productName" : "Pencil",
        "price": 250,
        "totalrating": 34,
        "numReviews": 10,
        "isFeatured": true,
        "name": "Bag101",
        "release": 2019,
        "des": [
            "Lorem Ipsum is simply dummy text",
            "Lorem Ipsum has been the industry"
        ],
        "countInStock": 25,
        "__v": 0
    },
    {
        "id": 2,
        "image": "https://i.pinimg.com/236x/b3/79/dc/b379dc1e0718fca9003ddbf3b0af8add.jpg",
        "productName": "Pencil",
        "price": 350.9,
        "rating": 5,
        "numReviews": 0,
        "isFeatured": true,
        "name": "Bag202",
        "totalPage": 200,
        "release": 2019,
        "des": [
            "Lorem Ipsum is simply dummy text",
            "Lorem Ipsum has been the industry"
        ],
        
        "countInStock": 10,
        "__v": 0
    },
    {
        "id": 3,
        "image": "https://i.pinimg.com/236x/ab/2d/3e/ab2d3e06d2640b8fa92a23c1dc542784.jpg",
        "productName": "Pen",
        "price": 1350.9,
        "rating": 5,
        "numReviews": 0,
        "isFeatured": true,
        "name": "Bag303",
        "totalPage": 200,
        "release": 2019,
        "des": [
            "Lorem Ipsum is simply dummy text",
            "Lorem Ipsum has been the industry"
        ],
        
        "countInStock": 10,
        "__v": 0
    },
    {
        "id": 4,
        "image": "https://i.pinimg.com/236x/47/63/7c/47637c935a0dcb7aaeb71fbc4ebcb242.jpg",
        "productName": "Box",
        "price": 490.9,
        "rating": 5,
        "numReviews": 0,
        "isFeatured": true,
        "name": "Bag404",
        "totalPage": 200,
        "release": 2019,
        "des": [
            "Lorem Ipsum is simply dummy text",
            "Lorem Ipsum has been the industry"
        ],
        "countInStock": 5,
        "__v": 0
    },
    {
        "id": 5,
        "image": "https://i.pinimg.com/236x/62/33/3d/62333d2ac8872b23cb81e24529516b4c.jpg",
        "productName": "Calculator",
        "price": 1000,
        "rating": 5,
        "numReviews": null,
        "isFeatured": true,
        "name": "Bag505",
        "totalPage": 200,
        "release": 2019,
        "des": [
            "Lorem Ipsum is simply dummy text",
            "Lorem Ipsum has been the industry"
        ],
        
        "countInStock": 2,
        "__v": 0
    },
    {
        "id": 6,
        "image": "https://i.pinimg.com/236x/20/14/95/20149537c7e3df6e5b12e1b668968649.jpg",
        "productName": "Bata",
        "price": 1000,
        "rating": 5,
        "numReviews": null,
        "isFeatured": true,
        "name": "Bag604",
        "totalPage": 200,
        "release": 2019,
        "des": [
            "Lorem Ipsum is simply dummy text",
            "Lorem Ipsum has been the industry"
        ],
        
        "countInStock": 2,
        "__v": 0
    },
    {
        "id": 7,
        "image": "https://i.pinimg.com/236x/b2/74/ae/b274aef3fa9d67832c7f9c1bf9ba10fe.jpg",
        "productName": "Geometry Box",
        "price": 1000,
        "rating": 5,
        "numReviews": null,
        "isFeatured": true,
        "name": "Bag704",
        "totalPage": 200,
        "release": 2019,
        "des": [
            "Lorem Ipsum is simply dummy text",
            "Lorem Ipsum has been the industry"
        ],
        
        "countInStock": 2,
        "__v": 0
    },
    {
        "id": 8,
        "image": "https://i.pinimg.com/236x/a5/77/95/a57795c05e2c7164417e841371ef71ea.jpg",
        "productName": "Lotto",
        "price": 1000,
        "rating": 5,
        "numReviews": null,
        "isFeatured": true,
        "name": "Bag805",
        "totalPage": 200,
        "release": 2019,
        "des": [
            "Lorem Ipsum is simply dummy text",
            "Lorem Ipsum has been the industry"
        ],
        
        "countInStock": 2,
        "__v": 0
    },
    {
        "id": 9,
        "image": "https://i.pinimg.com/236x/f5/89/1e/f5891ec6d98e4323eefa1315998ea4da.jpg",
        "productName": "School Box",
        "price": 1000,
        "rating": 5,
        "numReviews": null,
        "isFeatured": true,
        "name": "Bag906",
        "totalPage": 200,
        "release": 2019,
        "des": [
            "Lorem Ipsum is simply dummy text",
            "Lorem Ipsum has been the industry"
        ],
        
        "countInStock": 2,
        "__v": 0
    },
    {
        "id": 10,
        "image": "https://i.pinimg.com/236x/f1/4f/2a/f14f2a89fbffa943b518d206748b72e1.jpg",
        "productName": "Bata",
        "price": 1000,
        "rating": 5,
        "numReviews": null,
        "isFeatured": true,
        "name": "Bag845",
        "totalPage": 200,
        "release": 2019,
        "des": [
            "Lorem Ipsum is simply dummy text",
            "Lorem Ipsum has been the industry"
        ],
        
        "countInStock": 2,
        "__v": 0
    },
    {
        "id": 11,
        "image": "https://i.pinimg.com/236x/37/00/04/37000406316216552e3b7135c1703b25.jpg",
        "productName": "Bata",
        "price": 1000,
        "rating": 5,
        "numReviews": null,
        "isFeatured": true,
        "name": "Bag0II",
        "totalPage": 200,
        "release": 2019,
        "des": [
            "Lorem Ipsum is simply dummy text",
            "Lorem Ipsum has been the industry"
        ],
        
        "countInStock": 2,
        "__v": 0
    },
    {
        "id": 12,
        "image": "https://i.pinimg.com/236x/37/00/04/37000406316216552e3b7135c1703b25.jpg",
        "productName": "Bata",
        "price": 1000,
        "rating": 5,
        "numReviews": null,
        "isFeatured": true,
        "name": "Wallet 03",
        "totalPage": 200,
        "release": 2019,
        "des": [
            "Lorem Ipsum is simply dummy text",
            "Lorem Ipsum has been the industry"
        ],
        
        "countInStock": 2,
        "__v": 0
    },
    {
        "id": 13,
        "image": "https://i.pinimg.com/236x/37/00/04/37000406316216552e3b7135c1703b25.jpg",
        "productName": "Bata",
        "price": 1000,
        "rating": 5,
        "numReviews": null,
        "isFeatured": true,
        "name": "Waller 04",
        "totalPage": 200,
        "release": 2019,
        "des": [
            "Lorem Ipsum is simply dummy text",
            "Lorem Ipsum has been the industry"
        ],
        
        "countInStock": 2,
        "__v": 0
    },
    {
        "id": 14,
        "image": "https://i.pinimg.com/236x/37/00/04/37000406316216552e3b7135c1703b25.jpg",
        "productName": "Bata",
        "price": 1000,
        "rating": 5,
        "numReviews": null,
        "isFeatured": true,
        "name": "Waller 04",
        "totalPage": 200,
        "release": 2019,
        "des": [
            "Lorem Ipsum is simply dummy text",
            "Lorem Ipsum has been the industry"
        ],
        
        "countInStock": 2,
        "__v": 0
    },
    {
        "id": 15,
        "image": "https://i.pinimg.com/236x/37/00/04/37000406316216552e3b7135c1703b25.jpg",
        "productName": "Bata",
        "price": 1000,
        "rating": 5,
        "numReviews": null,
        "isFeatured": true,
        "name": "Waller 04",
        "totalPage": 200,
        "release": 2019,
        "des": [
            "Lorem Ipsum is simply dummy text",
            "Lorem Ipsum has been the industry"
        ],
        
        "countInStock": 2,
        "__v": 0
    }
]